ControlName;Text
FileToolStripMenuItem;File
LoadSaveFileToolStripMenuItem;Load File...
SaveFileToolStripMenuItem;Save File As...
ExitToolStripMenuItem;Exit
SettingsToolStripMenuItem;Settings
AllowEditOfROValsToolStripMenuItem;Allow Editing of Read-Only Values
HelpToolStripMenuItem;Help
FAQToolStripMenuItem;FAQ
AboutToolStripMenuItem;About
BtnLoad;Load File...
BtnSave;Save File As...
TabMain;Main
TabChars;Characters
TabItems;Items
TabAffChart;Affinity Chart
TabTimeAtk;Time Attack
TabUnknown;Unknown
GbxMoney;Money
LblMoney;Money:
LblNoponstones;Noponstones:
GbxTimeData;Time Data
GbxSaveTime;Time Saved
LblSaveTimeDate;Date:
LblSaveTimeTime;Time:
LblSaveTimeUnkA;UnkA:
LblSaveTimeUnkB;UnkB:
GbxInGameTime;Current In-Game Time
LblInGameTimeDay;Day:
LblInGameTimeTime;Time:
GbxPlayTime;Total Play Time:
LblPlayTimeTime;Time:
GbxParty;Party
GbxPartyMembers;Party Members
LblPartyMembersMember;Member:
LblPartyMembersCharacter;Character:
LblPartyMembersCount;Party Member Count:
TabCharsMain;Main
TabCharsArts;Arts
TabCharsSkillTrees;Skill Trees
tabCharsSkillLinks;Skill Links
TabCharsUnknown;Unknown
GbxCharacter;Character
LblCharID;Character ID:
ChkCharInParty;Is In Party:
GbxCharStats;Base Stats
LblCharLevel;Level:
LblCharExpertLvl;Expert Mode Level:
GbxCharExp;Experience Points
LblCharExp;Experience Points:
LblCharExpertExp;Expert Mode Exp:
LblCharExpertRsvExp;Expert Mode Rsv. Exp:
GbxCharSetNormalArts;Set Normal Arts
LblCharNormalArt1ID;Normal Art 1:
LblCharNormalArt2ID;Normal Art 2:
LblCharNormalArt3ID;Normal Art 3:
LblCharNormalArt4ID;Normal Art 4:
LblCharTalentArtID;Talent Art:
LblCharNormalArt5ID;Normal Art 5:
LblCharNormalArt6ID;Normal Art 6:
LblCharNormalArt7ID;Normal Art 7:
LblCharNormalArt8ID;Normal Art 8:
GbxCharSetMonadoArts;Set Monado Arts
LblCharMonadoArt1ID;Monado Art 1:
LblCharMonadoArt2ID;Monado Art 2:
LblCharMonadoArt3ID;Monado Art 3:
LblCharMonadoArt4ID;Monado Art 4:
LblCharMonTalentArtID;Talent Art:
LblCharMonadoArt5ID;Monado Art 5:
LblCharMonadoArt6ID;Monado Art 6:
LblCharMonadoArt7ID;Monado Art 7:
LblCharMonadoArt8ID;Monado Art 8:
GbxCharArtLevels;Character Art Levels
LblCharArtID;Art ID:
LblCharArtUnlkLvl;Art Unlock Level:
LblCharArtLevel;Art Level:
LblCharArtPoints;Art Points:
GbxCharSkillTrees;Skill Trees
LblCharSkillTreeName;Skill Tree Name:
LblCharSkill1;Skill 1:
LblCharSkill2;Skill 2:
LblCharSkill3;Skill 3:
LblCharSkill4;Skill 4:
LblCharSkill5;Skill 5:
LblCharUnlockedSkills;Unlocked Skills:
LblCharSkillPoints;Skill Points:
GbxCharSkillLinks;Skill Links
LblCharSkillLinkReceiver;Receiving Character:
LblCharSkillLinkSources;Source Characters:
GbxCharAffinityCoins;Affinity Coins
LblCharAffinityCoins;Affinity Coins:
GbxCharUnk1;Unk1 (0x010)
GbxCharUnk2;Unk2 (0x02c)
GbxCharUnk3;Unk3 (0x06c)
GbxCharUnk4;Unk4 (0x0a4)
GbxCharUnk5;Unk5 (0x0f8)
GbxItemFind;Find Existing Item in Current Item Box
LblItemFindName;Find Name:
BtnItemSearch;Find
GbxItemAddNew;Easy-Add New Item to Current Item Box
LblItemAddNewItemID;Item:
LblItemAddNewItemQty;Qty:
BtnItemAddNew;Add
GbxItemCheat;Easy-Cheat
BtnItemCheatMaxQty;Max Out Qty for all Items in Current Box
LblItemSortTip;Double-click ID, Name, Qty, Exists, Favourite, Serial,\nEquipped, Weight, Gem Slots, Rank, Element, or Buffs\ncolumn headers to sort Items by that field.
TabWeaponBox;Weapons
TabHeadArmourBox;Head Armour
TabTorsoArmourBox;Torso Armour
TabArmArmourBox;Arm Armour
TabLegArmourBox;Leg Armour
TabFootArmourBox;Foot Armour
TabCrystalBox;Crystals
TabGemBox;Gems
TabCollectableBox;Collectables
TabMaterialBox;Materials
TabKeyItemBox;Key Items
TabArtsManualBox;Arts Manuals
TabItemsSerials;Serials
GbxItemBoxSerials;Item Box Serials
LblItemBoxSerial1;Weapons:
LblItemBoxSerial2;Gems:
LblItemBoxSerial3;Head Armour:
LblItemBoxSerial4;Torso Armour:
LblItemBoxSerial5;Arm Armour:
LblItemBoxSerial6;Leg Armour:
LblItemBoxSerial7;Foot Armour:
LblItemBoxSerial8;Crystals:
LblItemBoxSerial9;Collectables:
LblItemBoxSerial10;Materials:
LblItemBoxSerial11;Key Items:
LblItemBoxSerial12;Arts Manuals:
LblItemBoxSerial13;Unknown:
TsmiItemGetNewSerial;Apply Unused Serial To This Item
TabUnkMain;Main
TabUnk_0x000014;Unk_0x000014
TabUnk_0x03b5b0;Unk_0x03b5b0
TabUnk_0x04693c;Unk_0x04693c
TabUnk_0x151b44;Unk_0x151b44
GbxUnk_0x000000;Unk_0x000000
GbxUnk_0x152331;Unk_0x152331
