ID;CharID;TreeID;Name
0;0;0;(None)
1;1;1;Integrity
2;1;2;Humanity
3;1;3;Intuition
4;1;5;Bravery
5;1;4;Pessimism
6;2;1;Spirit
7;2;2;Enthusiasm
8;2;3;Diligence
9;2;5;Camaraderie
10;2;4;Impatience
11;3;1;Courage
12;3;2;Daring
13;3;3;Zeal
14;3;5;Innocence
15;3;4;Rashness
16;4;1;Bravery
17;4;2;Wisdom
18;4;3;Prudence
19;4;5;Enthusiasm
20;4;4;Obstinance
21;5;1;Devotion
22;5;2;Perseverance
23;5;3;Confidence
24;5;5;Affection
25;5;4;Reliance
26;6;1;Vivacity
27;6;2;Innocence
28;6;3;Flexibility
29;6;5;Heroism
30;6;4;Cowardice
31;7;1;Serenity
32;7;2;Honesty
33;7;3;Reliability
34;7;5;Passion
35;7;4;Reticence
36;8;1;Courage
37;8;2;Daring
38;8;3;Zeal
39;8;5;Innocence
40;8;4;Rashness
